{
  "orgName": "Salesforce Cloud CCI - Release Test Org",
  "edition": "Enterprise",
  "settings": {
    "orgPreferenceSettings": {
      "s1DesktopEnabled": true
      , "chatterEnabled": true
    }
  }
}